<?xml version="1.0" encoding="UTF-8" standalone="no"?>
<svg
   xmlns:dc="http://purl.org/dc/elements/1.1/"
   xmlns:cc="http://creativecommons.org/ns#"
   xmlns:rdf="http://www.w3.org/1999/02/22-rdf-syntax-ns#"
   xmlns:svg="http://www.w3.org/2000/svg"
   xmlns="http://www.w3.org/2000/svg"
   viewBox="0 0 513 250"
   height="83"
   width="170"
   id="svg815"
   version="1.1">
  <metadata
     id="metadata821">
    <rdf:RDF>
      <cc:Work
         rdf:about="">
        <dc:format>image/svg+xml</dc:format>
        <dc:type
           rdf:resource="http://purl.org/dc/dcmitype/StillImage" />
        <dc:title></dc:title>
      </cc:Work>
    </rdf:RDF>
  </metadata>
  <defs
     id="defs819" />
  <g
     transform="translate(0,-22.959991)"
     style="fill:#181717;fill-opacity:1"
     id="g896">
    <path
       style="fill:#181717;fill-opacity:1;stroke-width:0.31999999"
       d="m 242.34163,272.5289 c -1.33594,-0.25343 -2.79998,-0.60183 -3.25342,-0.77423 l -0.82443,-0.31345 1.44544,-4.89802 c 0.79499,-2.69392 1.5009,-4.98884 1.56869,-5.09982 0.0678,-0.11099 0.47624,-0.26927 0.90767,-0.35175 0.86497,-0.16535 0.76558,-0.60231 1.39975,6.15354 l 0.22528,2.4 1.92,0.40782 c 3.67848,0.78135 7.70859,-0.0522 10.08433,-2.08577 1.6043,-1.37321 2.23568,-2.7128 2.23568,-4.74341 0,-3.04405 -1.36796,-4.56517 -6.88749,-7.65864 -4.40601,-2.46938 -6.25729,-4.12177 -7.5423,-6.732 -0.94909,-1.92787 -1.00128,-2.21796 -0.87429,-4.85914 0.11237,-2.33679 0.29047,-3.09408 1.05975,-4.50599 1.65354,-3.03483 4.94329,-5.27174 9.36432,-6.36738 2.90215,-0.71923 10.21225,-0.71542 13.48564,0.007 1.30109,0.28715 2.40862,0.56509 2.46117,0.61763 0.21328,0.21329 -3.06849,9.00364 -3.45231,9.24712 -0.52137,0.33074 -1.21118,0.34918 -1.2249,0.0327 -0.0592,-1.36421 -0.93033,-7.20754 -1.0999,-7.37753 -0.12205,-0.12236 -1.57181,-0.27216 -3.22168,-0.33288 -3.66557,-0.13492 -5.57499,0.4149 -7.58485,2.18406 -2.75119,2.42169 -2.85744,5.89243 -0.26068,8.51515 0.69803,0.70501 2.96752,2.27834 5.04333,3.49631 6.91496,4.05732 8.96921,6.89125 8.66541,11.95436 -0.31216,5.20236 -3.44479,8.51818 -10.01122,10.59668 -2.9204,0.9244 -9.99251,1.1774 -13.62899,0.48757 z"
       id="path873" />
    <path
       style="fill:#181717;fill-opacity:1;stroke-width:0.31999999"
       d="m 284.29062,272.5249 c -6.36141,-1.44087 -10.97794,-6.08663 -12.17735,-12.25446 -0.61632,-3.16935 -0.24361,-8.30033 0.83923,-11.5533 1.96276,-5.89641 6.77762,-11.09412 12.81117,-13.82986 3.60155,-1.63302 7.10102,-2.31641 11.96695,-2.33695 4.31545,-0.0182 9.44617,0.58739 9.79788,1.15651 0.1024,0.16569 -0.56131,2.43831 -1.47494,5.05026 -1.33347,3.81224 -1.79466,4.78391 -2.33808,4.92602 -0.37229,0.0974 -0.72422,0.12971 -0.78205,0.0719 -0.0578,-0.0578 -0.30163,-1.79442 -0.54176,-3.85909 -0.24016,-2.06468 -0.59568,-3.91303 -0.79011,-4.10744 -0.1944,-0.19441 -1.71184,-0.41289 -3.37206,-0.4855 -2.42661,-0.10613 -3.45425,3.1e-4 -5.24011,0.54274 -4.13108,1.25478 -7.6295,4.55286 -10.00603,9.43303 -1.76599,3.62646 -2.30446,6.41566 -2.1564,11.16991 0.10859,3.48694 0.22287,4.13752 1.04112,5.92712 1.1794,2.57947 3.89763,5.16599 6.49147,6.17693 2.68042,1.04469 7.64786,1.05913 10.92492,0.0318 1.29459,-0.40586 2.39271,-0.69316 2.44023,-0.63844 0.0475,0.0547 0.18409,0.41748 0.30348,0.80613 0.18954,0.61699 -0.0256,0.82913 -1.69507,1.67191 -4.43669,2.23963 -11.40239,3.15181 -16.04249,2.10083 z"
       id="path871" />
    <path
       style="fill:#181717;fill-opacity:1;stroke-width:0.31999999"
       d="m 144.74414,232.45312 -1.48047,0.27735 c -0.81406,0.15208 -1.51524,0.31167 -1.55664,0.35547 -0.0414,0.0438 -4.5027,7.56675 -9.91406,16.71875 -5.41136,9.152 -10.26788,17.24531 -10.79297,17.98437 -2.04433,2.87737 -5.90894,3.44403 -7.96875,1.16797 -0.78573,-0.86823 -2.45255,-4.39821 -4.73828,-10.03125 -1.10695,-2.728 -2.15797,-5.14294 -2.33399,-5.36719 -0.40768,-0.5194 -0.39299,-0.53124 1.62891,-1.32812 2.88373,-1.13653 5.45868,-3.01896 6.64063,-4.85352 2.7346,-4.24453 2.03063,-9.61339 -1.58204,-12.04883 -2.956,-1.99275 -3.75287,-2.10827 -15.066402,-2.20507 -10.32996,-0.0884 -10.709309,-0.0532 -10.724609,1.02929 -0.0027,0.19114 0.865234,0.58937 1.927734,0.88477 1.0625,0.2954 2.016121,0.75693 2.119141,1.02539 0.10302,0.26847 0.03068,1.31143 -0.160156,2.31641 -3.44972,18.16635 -5.952097,30.70253 -6.185547,30.99609 -0.16123,0.20272 -0.681424,0.46116 -1.158203,0.57617 -2.974471,0.71756 -3.267579,0.84958 -3.267579,1.4668 0,0.60747 0.268143,0.62695 8.320313,0.62695 8.06738,0 8.320312,-0.019 8.320312,-0.63086 0,-0.48957 -0.396328,-0.74565 -1.761718,-1.14258 -1.43596,-0.41744 -1.758719,-0.64006 -1.761719,-1.20898 -0.0019,-0.38351 0.600754,-3.90738 1.339844,-7.83203 l 1.34375,-7.13672 1.113281,0.0957 1.111328,0.0957 1.554688,4.16015 c 4.681752,12.53819 5.118982,13.20193 9.189452,13.93164 0.80908,0.14508 2.69346,0.19995 4.18945,0.12305 1.496,-0.0768 5.50067,-0.22656 8.89844,-0.33203 5.93509,-0.18424 6.17398,-0.21589 6.08008,-0.82813 -0.0687,-0.4475 -0.5737,-0.7949 -1.69727,-1.16601 -1.4144,-0.46717 -1.59432,-0.62711 -1.54492,-1.37695 0.0307,-0.46655 1.08433,-2.66145 2.33985,-4.87891 l 2.28125,-4.0332 h 5.90234 c 3.24574,0 5.90039,0.0818 5.90039,0.18164 0,0.0997 0.29167,2.04947 0.64648,4.33203 0.46753,3.00773 0.55368,4.32085 0.3125,4.77148 -0.19553,0.36536 -1.0563,0.83154 -2.08593,1.13086 -1.34147,0.38997 -1.75196,0.65439 -1.75196,1.12695 0,0.59449 0.31796,0.61719 8.63868,0.61719 8.37008,0 8.64062,-0.0189 8.64062,-0.62695 0,-0.46888 -0.34342,-0.71861 -1.35937,-0.98633 -1.77204,-0.46696 -2.76007,-1.1193 -3.11719,-2.05859 -0.26557,-0.69851 -1.03559,-5.00239 -4.51953,-25.28711 -0.69525,-4.048 -1.40989,-8.09621 -1.58789,-8.9961 z m -44.04492,3.0625 c 0.42305,-0.0204 0.9714,0.0869 1.7207,0.19922 2.82289,0.42332 4.57179,2.93886 4.58399,6.5918 0.0147,4.41024 -1.70513,7.37636 -4.99024,8.60547 -1.04329,0.39035 -2.516601,0.65234 -3.658201,0.65234 h -1.91211 l 0.195313,-1.19922 c 0.10803,-0.66 0.795351,-4.22392 1.52539,-7.91992 1.117748,-5.65883 1.265989,-6.86862 2.535158,-6.92969 z m 37.93945,8.25 0.17969,1.09961 c 0.83445,5.14407 1.79297,11.42419 1.79297,11.7461 0,0.29492 -1.18308,0.39453 -4.67578,0.39453 -4.31981,0 -4.65666,-0.043 -4.45899,-0.56055 0.18876,-0.4942 5.11284,-9.25453 6.59961,-11.74023 z"
       id="path869" />
    <path
       style="fill:#181717;fill-opacity:1;stroke-width:0.31999999"
       d="m 29.369637,271.02025 c -0.638343,-1.0112 -9.202731,-15.0682 -15.752504,-25.85508 -0.160298,-0.264 -0.380851,-0.39549 -0.490115,-0.2922 -0.28392,0.26839 -4.6011997,24.05818 -4.4453867,24.49571 0.0712,0.19993 0.969972,0.59935 1.9972747,0.88759 1.591936,0.44668 1.843398,0.6175 1.702444,1.15649 -0.157504,0.60231 -0.459203,0.63241 -6.3380957,0.63241 -5.83184245,0 -6.16423345,-0.0325 -6.01904745,-0.58764 0.106255,-0.40632 0.811648,-0.77683 2.28611245,-1.2008 1.639321,-0.47137 2.217566,-0.79797 2.500549,-1.41236 0.202459,-0.43956 1.695895,-7.98967 3.318746,-16.77803 3.3259277,-18.01117 3.3005357,-16.42639 0.274805,-17.15225 -1.182532,-0.28369 -1.547567,-0.5036 -1.413936,-0.85184 0.09907,-0.25818 0.180135,-0.6004 0.180135,-0.76049 0,-0.16375 1.895024,-0.26139 4.3327127,-0.22322 l 4.332714,0.0678 7.137012,11.6894 c 3.925357,6.42917 7.551616,12.40462 8.058356,13.27878 l 0.921344,1.58939 0.241004,-0.94939 c 0.502282,-1.97859 4.096858,-21.59517 4.096858,-22.35765 0,-0.70363 -0.230272,-0.86323 -1.936138,-1.34187 -1.650364,-0.46307 -1.921945,-0.64263 -1.84,-1.21655 0.09366,-0.65594 0.255072,-0.67448 6.256138,-0.71869 l 6.16,-0.0454 v 0.72739 c 0,0.60274 -0.260467,0.79049 -1.52,1.09564 -3.081379,0.74654 -3.141203,0.80057 -3.684963,3.32794 -0.272138,1.26488 -1.827334,9.35578 -3.455994,17.97978 -1.628659,8.624 -3.118211,15.7858 -3.310121,15.9151 -0.191908,0.12931 -0.887114,0.23731 -1.544909,0.24 -1.059095,0.004 -1.293159,-0.14904 -2.044995,-1.34002 z"
       id="path863" />
    <path
       style="fill:#181717;fill-opacity:1;stroke-width:0.31999999"
       d="m 175.36523,233.05469 c -5.91473,0.0227 -10.7539,0.15252 -10.7539,0.28906 0,0.13653 -0.0788,0.45163 -0.17383,0.69922 -0.12523,0.32636 0.36173,0.59829 1.77148,0.99023 1.06951,0.29735 2.02832,0.76013 2.13086,1.02735 0.10255,0.26722 -0.34688,3.32469 -1,6.79492 -3.30554,17.56351 -5.02885,26.15743 -5.3164,26.50391 -0.17503,0.21089 -0.70877,0.47678 -1.18555,0.59179 -3.06543,0.73951 -3.26658,0.83575 -3.26562,1.54688 v 0.70703 l 10.95898,-0.0117 c 12.0783,-0.0136 13.37779,-0.16398 18.00391,-2.08984 5.06834,-2.10995 9.7605,-6.40968 12.00781,-11.00196 1.61283,-3.29576 2.22133,-5.65381 2.45312,-9.51758 0.43532,-7.25646 -1.99231,-11.80628 -7.74609,-14.52539 -3.88055,-1.83387 -5.80324,-2.0503 -17.88477,-2.0039 z m 6.04493,2.57812 c 3.52905,0.0854 3.99527,0.17048 5.75976,1.05274 2.28809,1.14407 3.748,2.91801 4.55664,5.54101 0.82692,2.68228 0.71979,9.85477 -0.19922,13.33789 -2.00732,7.6079 -6.90527,12.72745 -13.29492,13.89453 -1.84923,0.33776 -5.3724,0.40035 -6.82226,0.1211 -0.396,-0.0763 -0.71875,-0.35804 -0.71875,-0.625 0,-1.32253 6.22403,-32.9439 6.52734,-33.16211 0.19334,-0.1391 2.07941,-0.21126 4.19141,-0.16016 z"
       id="path861" />
    <path
       style="fill:#181717;fill-opacity:1;stroke-width:0.31999999"
       d="m 331.97039,271.4975 c 1.9e-4,-0.56431 0.27571,-0.77847 1.36023,-1.05723 2.98524,-0.76733 2.92886,-0.72383 3.34633,-2.58121 0.71319,-3.17305 2.65367,-13.66096 2.65367,-14.34248 0,-0.66462 -0.0839,-0.67141 -8.29732,-0.67141 h -8.29731 l -0.3407,1.68 c -0.95747,4.72111 -2.29011,12.02408 -2.46378,13.50158 l -0.19661,1.67284 1.98304,0.55641 c 1.51181,0.42419 1.93901,0.67108 1.79786,1.03896 -0.10186,0.26541 -0.18518,0.54278 -0.18518,0.61638 0,0.0736 -3.80253,0.13383 -8.45005,0.13383 -8.23485,0 -8.44586,-0.016 -8.28602,-0.62717 0.11559,-0.44205 0.69706,-0.77438 1.97002,-1.12594 2.49501,-0.68904 2.71373,-0.8544 3.01161,-2.27663 1.16973,-5.58524 5.68109,-29.85859 5.74871,-30.93097 l 0.0857,-1.35929 -2.01434,-0.62041 c -1.69446,-0.52189 -1.99936,-0.72514 -1.92,-1.28 0.0924,-0.64618 0.26832,-0.6604 8.65434,-0.69936 8.5639,-0.0398 8.9936,0.0136 8.3151,1.03299 -0.12931,0.19427 -1.1711,0.62879 -2.3151,0.96561 l -2.08,0.6124 -1.34336,6.71439 c -0.73882,3.69291 -1.35082,6.89438 -1.36,7.11438 -0.0128,0.31028 1.86979,0.4 8.39331,0.4 h 8.40995 l 1.21747,-6.64 c 0.6696,-3.652 1.24115,-6.85536 1.27005,-7.11857 0.0345,-0.31404 -0.58,-0.69687 -1.78742,-1.11352 -1.46679,-0.50616 -1.84,-0.77346 -1.84,-1.3178 0,-0.67963 0.0394,-0.68286 8.4,-0.68833 4.62,-0.003 8.49449,0.0495 8.60995,0.11669 0.11549,0.0672 0.13789,0.39785 0.0498,0.73479 -0.11863,0.45361 -0.73594,0.75371 -2.37824,1.15618 -1.37863,0.33785 -2.33229,0.75708 -2.51997,1.10777 -0.49094,0.91731 -6.44637,33.04773 -6.17232,33.30055 0.13795,0.12726 1.07882,0.46735 2.09082,0.75575 1.42758,0.40684 1.84,0.66353 1.84,1.14523 0,0.59659 -0.33149,0.62438 -8.48023,0.71106 l -8.48022,0.0902 z"
       id="path857" />
    <path
       style="fill:#181717;fill-opacity:1;stroke-width:0.31999999"
       d="m 373.57062,272.13959 c 0,-0.17042 -1.44,-6.98091 -3.2,-15.13442 -1.76,-8.15351 -3.2,-14.90184 -3.2,-14.99628 0,-0.0944 -0.12781,-0.0349 -0.28403,0.13228 -0.40039,0.42857 -5.27453,26.57347 -5.05882,27.1356 0.0975,0.25399 0.90749,0.70436 1.80003,1.00082 1.19965,0.39846 1.62282,0.6992 1.62282,1.1533 0,0.58416 -0.29818,0.61428 -6.08,0.61428 -5.69744,0 -6.08,-0.0372 -6.08,-0.59067 0,-0.45929 0.52921,-0.74445 2.37904,-1.28194 1.5847,-0.46046 2.4344,-0.8776 2.5448,-1.24933 0.0912,-0.30693 0.74454,-3.58206 1.45193,-7.27806 3.35319,-17.51905 4.79933,-25.54141 4.64823,-25.78588 -0.0907,-0.14678 -1.02423,-0.50798 -2.07447,-0.80267 -1.05024,-0.29468 -1.90733,-0.69681 -1.90464,-0.89362 0.0141,-1.02808 0.50003,-1.10245 6.86212,-1.05023 l 6.38336,0.0524 2.80604,12.96 c 1.54333,7.128 2.80999,13.212 2.81482,13.52 0.005,0.308 0.13011,0.56 0.2784,0.56 0.14832,0 2.4551,-3.636 5.12618,-8.08 2.6711,-4.444 6.33945,-10.528 8.15193,-13.52 l 3.29539,-5.44 6.61844,-0.0591 6.61843,-0.0591 v 0.73362 c 0,0.64057 -0.29162,0.81042 -2.29901,1.3391 -2.07757,0.54716 -2.32416,0.69793 -2.56051,1.56547 -0.51629,1.89534 -6.02048,31.27471 -6.02048,32.13529 0,0.80264 0.16835,0.92659 1.92,1.41359 1.51347,0.42079 1.92,0.66683 1.92,1.1621 0,0.60596 -0.29571,0.6315 -8.32023,0.71866 l -8.32022,0.0904 2.2e-4,-0.70344 c 2e-4,-0.5876 0.32084,-0.79341 1.94704,-1.2497 1.41968,-0.39833 2.01924,-0.73669 2.21421,-1.24959 0.22896,-0.60214 2.10797,-9.9874 4.53504,-22.65156 0.62547,-3.26359 0.61731,-4.24748 -0.0294,-3.56437 -0.15555,0.16426 -4.13328,6.70666 -8.83939,14.53866 -4.70611,7.832 -8.66301,14.35936 -8.79309,14.50525 -0.35613,0.3994 -2.87401,0.67025 -2.87401,0.30917 z"
       id="path855" />
    <path
       style="fill:#181717;fill-opacity:1;stroke-width:0.31999999"
       d="m 407.17033,271.52071 c 2.2e-4,-0.57128 0.34429,-0.77759 2.08058,-1.24758 1.14419,-0.30971 2.20976,-0.7217 2.36796,-0.91554 0.15824,-0.19383 0.73143,-2.58442 1.2738,-5.31242 2.17779,-10.9538 4.85331,-25.13816 5.03788,-26.70863 l 0.19578,-1.66579 -1.95786,-0.54934 c -1.68038,-0.4715 -1.95785,-0.65511 -1.95785,-1.29559 v -0.74624 l 8.65833,0.004 c 7.4376,0.004 8.63322,0.0697 8.48,0.46897 -0.0981,0.25563 -0.17833,0.58667 -0.17833,0.73565 0,0.14898 -0.82154,0.45473 -1.8256,0.67943 -1.0041,0.22471 -2.0625,0.64545 -2.35203,0.93498 -0.51428,0.51427 -1.14743,3.53483 -5.28068,25.19194 -0.81555,4.27327 -1.4103,7.95858 -1.32163,8.18959 0.0886,0.231 1.04704,0.66857 2.12979,0.97238 1.51277,0.42446 1.94471,0.67695 1.86535,1.09041 -0.0928,0.48324 -0.97482,0.55434 -8.65955,0.69805 l -8.55623,0.16 2.9e-4,-0.68447 z"
       id="path853" />
    <path
       style="fill:#181717;fill-opacity:1;stroke-width:0.31999999"
       d="m 436.29102,233.06055 v 0.73047 c 0,0.6182 0.29041,0.81169 1.9082,1.26562 1.05024,0.29469 1.98723,0.66116 2.08203,0.81445 0.19206,0.31077 -5.75169,32.11961 -6.19336,33.14453 -0.18844,0.43726 -0.84083,0.78914 -1.99805,1.08008 -2.17286,0.54628 -2.83984,0.89318 -2.83984,1.47461 0,0.38453 1.0885,0.47679 6.48047,0.55469 3.564,0.0515 7.85269,0.12777 9.5293,0.16797 5.72931,0.13718 11.89177,-1.18284 15.66992,-3.35352 2.51571,-1.44538 5.76572,-4.25904 7.26172,-6.28906 2.81764,-3.82339 4.05106,-7.01359 4.5957,-11.89062 0.63709,-5.7047 -0.62253,-10.00485 -3.82813,-13.0625 -2.03715,-1.94309 -3.33416,-2.68414 -6.58789,-3.76368 -2.16583,-0.7186 -2.63481,-0.74404 -14.16015,-0.80664 z m 16.2539,2.5039 c 4.51312,0 6.36401,0.54142 8.41406,2.45899 2.53751,2.37353 2.99886,3.95727 3.00586,10.34179 0.005,4.57276 -0.0922,5.62158 -0.73046,7.82618 -2.09053,7.22054 -6.93625,12.11862 -13.14649,13.28906 -1.69965,0.32031 -5.56719,0.37318 -7.02539,0.0957 -0.57939,-0.11029 -0.71086,-0.30021 -0.58398,-0.83789 0.0901,-0.38173 1.47815,-7.67689 3.08593,-16.21289 1.60778,-8.536 3.05689,-15.84423 3.21875,-16.24023 0.27971,-0.6843 0.46498,-0.72071 3.76172,-0.72071 z"
       id="path851" />
    <path
       style="fill:#181717;fill-opacity:1;stroke-width:0.31999999"
       d="m 66.777344,232.55664 c -0.229071,0.008 -0.533686,0.0947 -0.957032,0.17383 -0.812896,0.15186 -1.526277,0.32506 -1.585937,0.38476 -0.05966,0.0597 -4.699908,7.86562 -10.3125,17.34766 -5.612589,9.48206 -10.614973,17.66552 -11.117187,18.18555 -0.557479,0.57725 -1.724256,1.20498 -2.994141,1.61133 -1.406141,0.44994 -2.114727,0.84932 -2.185547,1.23242 -0.09786,0.5294 0.323802,0.56147 6.396484,0.48047 5.824259,-0.0777 6.511739,-0.14511 6.605469,-0.63282 0.07814,-0.40659 -0.281903,-0.65645 -1.419922,-0.98828 -2.244605,-0.65449 -2.398418,-1.12802 -1.152343,-3.51172 0.573766,-1.09759 1.69401,-3.11061 2.490234,-4.47461 l 1.447266,-2.48046 h 5.875 5.873046 l 0.542969,3.59961 c 0.297814,1.98 0.492304,4.17685 0.433594,4.88085 -0.104502,1.25305 -0.144056,1.29313 -1.945313,1.86329 -1.403213,0.44416 -1.841796,0.72824 -1.841796,1.19921 -10e-7,0.59488 0.318516,0.61719 8.640624,0.61719 8.350189,0 8.640626,-0.0205 8.640626,-0.62304 0,-0.48937 -0.415994,-0.73966 -1.935547,-1.16602 -1.460806,-0.40988 -2.042525,-0.74809 -2.367188,-1.37695 -0.351011,-0.67988 -2.447596,-12.24866 -5.804687,-32.03321 -0.617652,-3.64004 -0.638961,-4.31361 -1.326172,-4.28906 z m -5.746094,11.51172 c 0.137596,-0.007 0.246081,0.38165 0.369141,1.25586 0.123872,0.88 0.573397,3.70921 0.998047,6.28516 0.42465,2.57594 0.771484,4.843 0.771484,5.03906 0,0.24557 -1.442185,0.35742 -4.638672,0.35742 -2.552,0 -4.639632,-0.10823 -4.638672,-0.24024 0.0013,-0.19176 5.826257,-10.65848 6.990234,-12.56054 0.0535,-0.0874 0.102573,-0.13427 0.148438,-0.13672 z"
       id="path847" />
    <path
       style="fill:#181717;fill-opacity:1;stroke-width:0.31999999"
       d="m 202.05061,271.45117 c 0,-0.45904 0.49078,-0.73425 2.16,-1.21125 1.65139,-0.47191 2.24691,-0.80298 2.52909,-1.406 0.46614,-0.99615 6.19091,-30.69222 6.19091,-32.11405 0,-1.00952 -0.0799,-1.07757 -1.92,-1.6347 -1.5969,-0.4835 -1.92,-0.70109 -1.92,-1.29304 v -0.71172 l 8.65615,0.009 c 8.59917,0.009 8.65552,0.0134 8.56,0.67873 -0.076,0.52969 -0.53111,0.78675 -2.17615,1.22927 -1.144,0.30774 -2.22986,0.7637 -2.41303,1.01324 -0.35321,0.48118 -6.25239,30.77732 -6.33714,32.54534 -0.0484,1.0087 0.009,1.05694 1.95017,1.63573 1.57212,0.46878 2,0.73084 2,1.22492 0,0.60922 -0.26578,0.62855 -8.64,0.62855 -8.20364,0 -8.64,-0.03 -8.64,-0.594 z"
       id="path843" />
    <path
       style="fill:#181717;fill-opacity:1;stroke-width:0.31999999"
       d="m 479.17552,271.80517 c 0.0138,-0.67223 0.72083,-1.10969 2.71584,-1.6802 1.20739,-0.34529 2.3032,-0.7385 2.43516,-0.8738 0.24919,-0.25553 6.3641,-31.75478 6.3641,-32.78285 0,-0.5326 -0.33981,-0.58293 -3.92,-0.58066 l -3.92,0.003 -2.04749,3.83751 c -1.72601,3.23499 -2.16563,3.83752 -2.8,3.83752 -0.41389,0 -0.74438,-0.18 -0.73449,-0.4 0.01,-0.22 0.26281,-2.56 0.56195,-5.2 l 0.54393,-4.8 17.19805,-0.0155 c 9.45891,-0.009 17.19997,0.0635 17.20231,0.16 0.003,0.0965 -0.80666,2.44348 -1.79773,5.21548 -1.59683,4.46609 -1.88346,5.04 -2.51731,5.04 -0.66004,0 -0.7313,-0.18915 -0.92228,-2.44829 -0.11382,-1.34655 -0.20694,-3.07455 -0.20694,-3.84 v -1.39171 h -4.16 c -2.288,0 -4.16,0.12488 -4.16,0.27752 0,0.15264 -1.368,7.44753 -3.04,16.21087 -1.672,8.76333 -3.04,16.19235 -3.04,16.50892 0,0.43576 0.54416,0.73764 2.24,1.24268 1.78333,0.53111 2.24,0.79482 2.24,1.29356 0,0.60727 -0.2791,0.62644 -9.12,0.62644 -5.016,0 -9.11779,-0.108 -9.1151,-0.24 z"
       id="path841" />
    <path
       style="fill:#181717;fill-opacity:1;stroke-width:0.31999999"
       d="m 59.661963,230.14637 c -0.340496,-0.63622 -0.59128,-0.42227 9.439783,-8.05334 0.333139,-0.25343 4.938096,3.67085 4.628874,3.94466 -0.275114,0.24362 -12.938996,4.72947 -13.348743,4.72845 -0.213808,-6.4e-4 -0.537769,-0.27943 -0.719914,-0.61977 z"
       id="path839" />
    <path
       style="fill:#181717;fill-opacity:1;stroke-width:0.31999999"
       d="m 211.98049,230.14337 c -0.29595,-0.55297 0.22132,-1.04419 4.68776,-4.45175 l 5.02041,-3.8302 2.18098,1.93834 c 1.19953,1.06609 2.17936,2.02538 2.17739,2.13175 -0.004,0.21495 -12.77217,4.83354 -13.36206,4.83354 -0.20451,0 -0.52153,-0.2797 -0.70448,-0.62155 z"
       id="path837" />
    <path
       style="fill:#181717;fill-opacity:1;stroke-width:0.31999999"
       d="m 97.005188,226.82113 c -1.89498,-1.94894 -3.39841,-3.68456 -3.34095,-3.85694 0.34656,-1.03969 1.16783,-0.87345 5.21849,1.05628 l 4.150662,1.97737 4.52681,-1.93639 c 2.48975,-1.06502 4.67091,-1.9364 4.84704,-1.9364 0.43133,0 0.81674,1.28336 0.47516,1.58222 -0.14948,0.13079 -1.92885,1.61359 -3.95415,3.29513 l -3.68238,3.05733 -2.39762,0.15246 -2.39763,0.15246 z"
       id="path835" />
  </g>
  <path
     id="path833"
     d="m 245.73061,180.32072 c -1.76,-0.65935 -7.34,-2.69322 -12.4,-4.51972 -5.06,-1.8265 -9.2,-3.42483 -9.2,-3.55184 0,-0.20912 3.67967,-4.04159 19.33307,-20.13589 2.83081,-2.91055 7.80088,-8.02255 11.0446,-11.36 3.24372,-3.33745 8.14425,-8.37209 10.89006,-11.18809 2.74582,-2.816 7.58227,-7.78399 10.74766,-11.03999 3.1654,-3.256 8.7431,-8.99015 12.39488,-12.74256 3.65179,-3.75241 6.56331,-6.946041 6.47003,-7.096961 -0.0933,-0.15093 0.112,-0.36378 0.45616,-0.47301 0.66828,-0.2121 12.74339,-12.56202 13.89638,-14.21264 0.37795,-0.54108 0.83328,-0.98626 1.01184,-0.9893 0.17856,-0.003 1.25677,-0.97753 2.396,-2.16553 9.93347,-10.358643 15.35933,-15.765453 15.35933,-15.305423 0,0.29839 -0.79565,9.06076 -1.7681,19.471953 -1.65331,17.700971 -1.81379,18.982121 -2.47258,19.741441 -0.38748,0.44661 -3.22864,3.40403 -6.31366,6.57203 -5.03366,5.30431 -9.96793,10.27696 -14.33366,14.75058 -0.83162,0.86933 -6.34276,6.54608 -12.24701,12.61501 -5.90426,6.06892 -17.69806,18.1984 -26.20845,26.9544 -8.5104,8.756 -15.55965,15.90973 -15.665,15.89717 -0.10535,-0.0126 -1.63155,-0.56229 -3.39155,-1.22163 z"
     style="fill:#1c3250;fill-opacity:1;stroke-width:0.31999999" />
  <path
     id="path831"
     d="m 335.90234,0.87594654 c -6.94131,0.02977 -14.16806,2.71572996 -19.28711,7.45507796 -3.79149,3.5102405 -6.84052,8.6093035 -8.20507,13.7148435 -0.9304,3.48132 -0.84938,10.607554 0.16406,14.314453 l 0.76367,2.792969 -10.35156,10.646485 c -5.69388,5.85504 -12.81136,13.166093 -15.81641,16.246093 -5.2475,5.37835 -10.33439,10.610468 -22.08008,22.712891 -2.99252,3.08342 -7.74976,7.98272 -10.57226,10.88672 -2.82251,2.904001 -10.01976,10.320471 -15.99219,16.480471 -5.97243,6.16 -13.4607,13.86314 -16.64258,17.11914 -18.45024,18.88004 -26.51588,27.31165 -26.23242,27.42578 0.176,0.0709 5.79247,2.12449 12.48047,4.56445 6.688,2.43996 12.25464,4.44839 12.37109,4.46289 0.24985,0.031 7.09323,-6.94729 33.07422,-33.73242 6.14578,-6.336 13.42177,-13.82462 16.16797,-16.64062 2.7462,-2.816 9.94638,-10.23247 16.00195,-16.48047 6.05557,-6.248001 13.74988,-14.167991 17.09766,-17.601571 3.34777,-3.43356 8.60145,-8.833565 11.67578,-11.999995 3.07437,-3.16643 8.16683,-8.380638 11.31445,-11.585937 l 5.72266,-5.828126 2.12695,0.517579 c 3.15654,0.76802 9.39722,0.677636 12.6875,-0.183594 7.98022,-2.08883 14.85137,-7.660449 18.39649,-14.917969 2.07315,-4.24419 2.69298,-6.99166 2.70898,-12 0.013,-4.06196 -0.5249,-8.121307 -1.125,-8.492187 -0.13584,-0.08396 -3.67803,3.376463 -7.87304,7.689453 -5.06185,5.20421 -7.84285,7.837125 -8.26758,7.828125 -1.02301,-0.02272 -14.53363,-2.730865 -14.76172,-2.958985 -0.24995,-0.24994 -3.94713,-13.626967 -3.95313,-14.304687 -0.003,-0.26275 3.68812,-4.173896 8.20313,-8.691406 l 8.20898,-8.2128915 -1.24804,-0.347656 c -2.16219,-0.60278 -4.44405,-0.88882996 -6.75782,-0.87890596 z M 215.04102,148.09079 c 3.22732,0.0479 5.98575,3.17997 5.39843,6.65625 -0.23661,1.40049 -1.64729,3.22426 -3.06054,3.95508 -0.49313,0.25501 -1.58691,0.4619 -2.43164,0.46094 -6.54096,-0.008 -7.64376,-9.1906 -1.3086,-10.89649 0.47181,-0.12704 0.9413,-0.18262 1.40235,-0.17578 z"
     style="fill:#215a99;fill-opacity:1;stroke-width:0.31999999" />
  <path
     id="path825"
     d="m 170.21061,153.04201 c -6.864,-2.48699 -12.53068,-4.56537 -12.59264,-4.61862 -0.0619,-0.0532 0.083,-0.37612 0.32209,-0.71748 0.39133,-0.5587 11.96904,-12.5019 28.13263,-29.02072 11.86882,-12.12967 22.36147,-23.065851 23.23988,-24.222241 0.49393,-0.65023 1.06106,-1.22623 1.26031,-1.28 0.31423,-0.0848 6.58539,-6.45827 17.84107,-18.132143 2.27765,-2.44507 3.85811,-4.008788 5.72473,-5.83731 3.15669,-3.28853 13.13419,-13.57153 17.66737,-18.20831 2.49497,-2.552 10.20434,-10.472 17.13192,-17.6 6.92758,-7.128 12.7275,-13.01319 12.88871,-13.07819 0.16593,-0.0669 0.21161,0.419 0.10528,1.12 -0.10331,0.681 -0.93329,9.37419 -1.84443,19.31819 -1.43254,15.63469 -1.73851,18.1882 -2.26228,18.88 -0.33313,0.44 -2.94891,3.176 -5.81285,6.08 -2.86394,2.904 -10.37068,10.608 -16.68164,17.120003 -6.31096,6.512 -13.86075,14.29228 -16.77731,17.289511 -2.91656,2.99724 -7.45945,7.67724 -10.09531,10.4 -2.63586,2.72277 -7.38864,7.61449 -10.56173,10.87049 -3.17309,3.25599 -9.72848,9.99272 -14.56753,14.97049 -4.83905,4.97778 -11.46227,11.78147 -14.71827,15.11932 l -5.92,6.06882 z"
     style="fill:#1c3250;fill-opacity:1;stroke-width:0.31999999" />
</svg>
